<svg width="24" height="24" viewBox="0 0 24 24" fill="none" xmlns="http://www.w3.org/2000/svg">
<path d="M23 23H1V12V1H23V12V23Z" fill="#141414"/>
<path d="M1 12V1H23V12M1 12V23H23V12M1 12H23" stroke="#C4C8CB" stroke-width="2"/>
</svg>
